[
    {
        "timestamp_ns": 1587505731920458618,
        "event_data": "strace: Process 15194 attached",
        "_id": "5e9f6a464eed6e4db4a935af",
        "_cls": "sc.capture.sources.strace.StraceRawEvent"
    },
    {
        "timestamp_ns": 1587505741599229910,
        "event_data": "strace: Process 10741 attached",
        "_id": "5e9f6a504eed6e4db4a935b1",
        "_cls": "sc.capture.sources.strace.StraceRawEvent"
    },
    {
        "timestamp_ns": 1587505741601055195,
        "event_data": "[pid 10741] 1587505741.600763 exit_group(1) = ?",
        "_id": "5e9f6a504eed6e4db4a935b2",
        "_cls": "sc.capture.sources.strace.StraceRawEvent"
    },
    {
        "timestamp_ns": 1587505741601252599,
        "event_data": "[pid 10741] 1587505741.601198 +++ exited with 1 +++",
        "_id": "5e9f6a504eed6e4db4a935b3",
        "_cls": "sc.capture.sources.strace.StraceRawEvent"
    },
    {
        "timestamp_ns": 1587505741601975054,
        "event_data": "strace: Process 10742 attached",
        "_id": "5e9f6a504eed6e4db4a935b4",
        "_cls": "sc.capture.sources.strace.StraceRawEvent"
    },
    {
        "timestamp_ns": 1587505741603097324,
        "event_data": "[pid 10742] 1587505741.603059 exit_group(0) = ?",
        "_id": "5e9f6a504eed6e4db4a935b5",
        "_cls": "sc.capture.sources.strace.StraceRawEvent"
    },
    {
        "timestamp_ns": 1587505741603241168,
        "event_data": "[pid 10742] 1587505741.603223 +++ exited with 0 +++",
        "_id": "5e9f6a504eed6e4db4a935b6",
        "_cls": "sc.capture.sources.strace.StraceRawEvent"
    },
    {
        "timestamp_ns": 1587505745027625773,
        "event_data": "strace: Process 10761 attached",
        "_id": "5e9f6a534eed6e4db4a935ba",
        "_cls": "sc.capture.sources.strace.StraceRawEvent"
    },
    {
        "timestamp_ns": 1587505745034032862,
        "event_data": "[pid 10761] 1587505745.030356 execve(\"/bin/mv\", [\"mv\", \"bar.txt\", \"baz.tzt\"], [\"CLUTTER_IM_MODULE=xim\", \"CONDA_SHLVL=1\", \"LC_ALL=en_US.UTF-8\", \"LS_COLORS=rs=0:di=01;34:ln=01;36:mh=00:pi=40;33:so=01;35:do=01;35:bd=40;33;01:cd=40;33;01:or=40;31;01:mi=00:su=37;41:sg=30;43:ca=30;41:tw=30;42:ow=34;42:st=37;44:ex=01;32:*.tar=01;31:*.tgz=01;31:*.arc=01;31:*.arj=01;31:*.taz=01;31:*.lha=01;31:*.lz4=01;31:*.lzh=01;31:*.lzma=01;31:*.tlz=01;31:*.txz=01;31:*.tzo=01;31:*.t7z=01;31:*.zip=01;31:*.z=01;31:*.Z=01;31:*.dz=01;31:*.gz=01;31:*.lrz=01;31:*.lz=01;31:*.lzo=01;31:*.xz=01;31:*.zst=01;31:*.tzst=01;31:*.bz2=01;31:*.bz=01;31:*.tbz=01;31:*.tbz2=01;31:*.tz=01;31:*.deb=01;31:*.rpm=01;31:*.jar=01;31:*.war=01;31:*.ear=01;31:*.sar=01;31:*.rar=01;31:*.alz=01;31:*.ace=01;31:*.zoo=01;31:*.cpio=01;31:*.7z=01;31:*.rz=01;31:*.cab=01;31:*.wim=01;31:*.swm=01;31:*.dwm=01;31:*.esd=01;31:*.jpg=01;35:*.jpeg=01;35:*.mjpg=01;35:*.mjpeg=01;35:*.gif=01;35:*.bmp=01;35:*.pbm=01;35:*.pgm=01;35:*.ppm=01;35:*.tga=01;35:*.xbm=01;35:*.xpm=01;35:*.tif=01;35:*.tiff=01;35:*.png=01;35:*.svg=01;35:*.svgz=01;35:*.mng=01;35:*.pcx=01;35:*.mov=01;35:*.mpg=01;35:*.mpeg=01;35:*.m2v=01;35:*.mkv=01;35:*.webm=01;35:*.ogm=01;35:*.mp4=01;35:*.m4v=01;35:*.mp4v=01;35:*.vob=01;35:*.qt=01;35:*.nuv=01;35:*.wmv=01;35:*.asf=01;35:*.rm=01;35:*.rmvb=01;35:*.flc=01;35:*.avi=01;35:*.fli=01;35:*.flv=01;35:*.gl=01;35:*.dl=01;35:*.xcf=01;35:*.xwd=01;35:*.yuv=01;35:*.cgm=01;35:*.emf=01;35:*.ogv=01;35:*.ogx=01;35:*.aac=00;36:*.au=00;36:*.flac=00;36:*.m4a=00;36:*.mid=00;36:*.midi=00;36:*.mka=00;36:*.mp3=00;36:*.mpc=00;36:*.ogg=00;36:*.ra=00;36:*.wav=00;36:*.oga=00;36:*.opus=00;36:*.spx=00;36:*.xspf=00;36:\", \"CONDA_EXE=/opt/conda/bin/conda\", \"ZPLUG_PROTOCOL=HTTPS\", \"ZPLUG_CACHE_DIR=/home/ludo/.zplug/cache\", \"LESSCLOSE=/usr/bin/lesspipe %s %s\", \"XDG_MENU_PREFIX=gnome-\", \"ZPLUG_LOADFILE=/home/ludo/.zplug/packages.zsh\", \"LANG=en_US.UTF-8\", \"LESS=-F -g -i -M -R -S -w -X -z-4\", \"DISPLAY=:0\", \"OLDPWD=/home/ludo/lbl/sc/notebooks\", \"_ZPLUG_PREZTO=sorin-ionescu/prezto\", \"GNOME_SHELL_SESSION_MODE=ubuntu\", \"EDITOR=code\", \"_ZPLUG_URL=https://github.com/zplug/zplug\", \"COLORTERM=truecolor\", \"FPATH=/home/ludo/.zplug/repos/esc/conda-zsh-completion:/home/ludo/.zplug/repos/robbyrussell/oh-my-zsh/plugins/docker:/home/ludo/.zplug/repos/robbyrussell/oh-my-zsh/plugins/docker-compose:/home/ludo/.zplug/misc/completions:/home/ludo/.zplug/base/sources:/home/ludo/.zplug/autoload:/home/ludo/.zplug/base/utils:/home/ludo/.zplug/base/job:/home/ludo/.zplug/base/log:/home/ludo/.zplug/base/io:/home/ludo/.zplug/base/core:/home/ludo/.zplug/base/base:/home/ludo/.zplug/autoload/commands:/home/ludo/.zplug/autoload/options:/home/ludo/.zplug/autoload/tags:/usr/local/share/zsh/site-functions:/usr/share/zsh/vendor-functions:/usr/share/zsh/vendor-completions:/usr/share/zsh/functions/Calendar:/usr/share/zsh/functions/Chpwd:/usr/share/zsh/functions/Completion:/usr/share/zsh/functions/Completion/AIX:/usr/share/zsh/functions/Completion/BSD:/usr/share/zsh/functions/Completion/Base:/usr/share/zsh/functions/Completion/Cygwin:/usr/share/zsh/functions/Completion/Darwin:/usr/share/zsh/functions/Completion/Debian:/usr/share/zsh/functions/Completion/Linux:/usr/share/zsh/functions/Completion/Mandriva:/usr/share/zsh/functions/Completion/Redhat:/usr/share/zsh/functions/Completion/Solaris:/usr/share/zsh/functions/Completion/Unix:/usr/share/zsh/functions/Completion/X:/usr/share/zsh/functions/Completion/Zsh:/usr/share/zsh/functions/Completion/openSUSE:/usr/share/zsh/functions/Exceptions:/usr/share/zsh/functions/MIME:/usr/share/zsh/functions/Math:/usr/share/zsh/functions/Misc:/usr/share/zsh/functions/Newuser:/usr/share/zsh/functions/Prompts:/usr/share/zsh/functions/TCP:/usr/share/zsh/functions/VCS_Info:/usr/share/zsh/functions/VCS_Info/Backends:/usr/share/zsh/functions/Zftp:/usr/share/zsh/functions/Zle\", \"USERNAME=ludo\", \"CONDA_PREFIX=/opt/conda\", \"_ZPLUG_OHMYZSH=robbyrussell/oh-my-zsh\", \"XDG_VTNR=2\", \"ZSH=/home/ludo/.zplug/repos/robbyrussell/oh-my-zsh\", \"SSH_AUTH_SOCK=/run/user/1000/keyring/ssh\", \"MANDATORY_PATH=/usr/share/gconf/ubuntu.mandatory.path\", \"_ZPLUG_CONFIG_SUBSHELL=:\", \"_CE_M=\", \"TMUX_PLUGIN_MANAGER_PATH=/home/ludo/.tmux/plugins/\", \"ZPLUG_ROOT=/home/ludo/.zplug\", \"XDG_SESSION_ID=2\", \"USER=ludo\", \"PAGER=less\", \"DESKTOP_SESSION=ubuntu\", \"ZPLUG_BIN=/home/ludo/.zplug/bin\", \"QT4_IM_MODULE=xim\", \"TEXTDOMAINDIR=/usr/share/locale/\", \"GNOME_TERMINAL_SCREEN=/org/gnome/Terminal/screen/e59c780a_60a0_4e61_a0c4_6ff7bd4e7653\", \"DEFAULTS_PATH=/usr/share/gconf/ubuntu.default.path\", \"PERIOD=30\", \"PWD=/tmp/scicap\", \"HOME=/home/ludo\", \"CONDA_PYTHON_EXE=/opt/conda/bin/python\", \"TEXTDOMAIN=im-config\", \"SSH_AGENT_PID=3778\", \"QT_ACCESSIBILITY=1\", \"TMUX=/tmp/tmux-1000/inner,6377,1\", \"XDG_SESSION_TYPE=x11\", \"ZPLUG_THREADS=16\", \"XDG_DATA_DIRS=/usr/share/ubuntu:/usr/local/share/:/usr/share/:/var/lib/snapd/desktop\", \"_CE_CONDA=\", \"XDG_SESSION_DESKTOP=ubuntu\", \"ZPLUG_FILTER=fzf-tmux:fzf:peco:percol:fzy:zaw\", \"GJS_DEBUG_OUTPUT=stderr\", \"ZPLUG_USE_CACHE=true\", \"_ZPLUG_VERSION=2.4.2\", \"CONDA_PROMPT_MODIFIER=\", \"GTK_MODULES=gail:atk-bridge\", \"_ZPLUG_AWKPATH=/home/ludo/.zplug/misc/contrib\", \"FZF_ALT_C_OPTS=--preview 'tree -C {} | head -200'\", \"VISUAL=code\", \"WINDOWPATH=2\", \"VTE_VERSION=5202\", \"TERM=xterm-256color\", \"SHELL=/bin/zsh\", \"ZPLUG_LOG_LOAD_SUCCESS=false\", \"QT_IM_MODULE=ibus\", \"XMODIFIERS=@im=ibus\", \"IM_CONFIG_PHASE=2\", \"ZPLUG_HOME=/home/ludo/.zplug\", \"XDG_CURRENT_DESKTOP=ubuntu:GNOME\", \"ZPLUG_LOG_LOAD_FAILURE=false\", \"GPG_AGENT_INFO=/run/user/1000/gnupg/S.gpg-agent:0:1\", \"GNOME_TERMINAL_SERVICE=:1.88\", \"TMUX_PANE=%5\", \"XDG_SEAT=seat0\", \"SHLVL=4\", \"GDMSESSION=ubuntu\", \"GNOME_DESKTOP_SESSION_ID=this-is-deprecated\", \"LOGNAME=ludo\", \"DBUS_SESSION_BUS_ADDRESS=unix:path=/run/user/1000/bus\", \"XDG_RUNTIME_DIR=/run/user/1000\", \"XAUTHORITY=/run/user/1000/gdm/Xauthority\", \"XDG_CONFIG_DIRS=/etc/xdg/xdg-ubuntu:/etc/xdg\", \"PATH=/opt/conda/bin:/home/ludo/bin:/home/ludo/.zplug/bin:/usr/local/bin:/usr/local/sbin:/home/ludo/bin:/opt/conda/condabin:/home/ludo/.local/bin:/usr/sbin:/usr/bin:/sbin:/bin:/usr/games:/usr/local/games:/snap/bin\", \"ZSH_CACHE_DIR=/home/ludo/.zplug/repos/robbyrussell/oh-my-zsh/cache/\", \"CONDA_DEFAULT_ENV=base\", \"GJS_DEBUG_TOPICS=JS ERROR;JS LOG\", \"ZPLUG_ERROR_LOG=/home/ludo/.zplug/.error_log\", \"SESSION_MANAGER=local/eks:@/tmp/.ICE-unix/3699,unix/eks:/tmp/.ICE-unix/3699\", \"ZPLUG_REPOS=/home/ludo/.zplug/repos\", \"LESSOPEN=| /usr/bin/lesspipe %s\", \"GTK_IM_MODULE=ibus\", \"_=/bin/mv\"]) = 0",
        "_id": "5e9f6a534eed6e4db4a935bb",
        "_cls": "sc.capture.sources.strace.StraceRawEvent"
    },
    {
        "timestamp_ns": 1587505745046391461,
        "event_data": "[pid 10761] 1587505745.046280 exit_group(0) = ?",
        "_id": "5e9f6a534eed6e4db4a935bc",
        "_cls": "sc.capture.sources.strace.StraceRawEvent"
    },
    {
        "timestamp_ns": 1587505745046685806,
        "event_data": "[pid 10761] 1587505745.046640 +++ exited with 0 +++",
        "_id": "5e9f6a534eed6e4db4a935bd",
        "_cls": "sc.capture.sources.strace.StraceRawEvent"
    }
]