[
    {
        "timestamp_ns": 1587505745547095801,
        "event_data": {
            "event_type": "moved",
            "src_path": "/tmp/scicap/bar.txt",
            "is_directory": false
        },
        "_id": "5e9f6a534eed6e4db4a935b8",
        "_cls": "sc.capture.sources.watchdog.WatchdogRawEvent"
    },
    {
        "timestamp_ns": 1587505745547494983,
        "event_data": {
            "event_type": "modified",
            "src_path": "/tmp/scicap",
            "is_directory": true
        },
        "_id": "5e9f6a534eed6e4db4a935b9",
        "_cls": "sc.capture.sources.watchdog.WatchdogRawEvent"
    }
]
